{
  "build": {
    "content": [
      {
        "files": [
          "creating-a-mod/**.md",
          "creating-a-mod/toc.yml",
          "creating-a-skin/**.md",
          "creating-a-skin/toc.yml",
          "api-reference/**.md",
          "api-reference/toc.yml",
          "documentation/**.md",
          "documentation/toc.yml",
          "getting-started/**.md",
          "getting-started/toc.yml",
          "toc.yml",
          "*.md"
        ]
      }
    ],
    "resource": [
      {
        "files": [
          "images/**"
        ]
      }
    ],
    "overwrite": [
      {
        "exclude": [
          "obj/**",
          "public/**"
        ]
      }
    ],
    "dest": "public",
    "globalMetadataFiles": [],
    "fileMetadataFiles": [],
    "template": [
      "default",
      "templates/unity"
    ],
    "postProcessors": [],
    "markdownEngineName": "markdig",
    "noLangKeyword": false,
    "keepFileLink": false,
    "cleanupCacheHistory": false,
    "disableGitFeatures": false,
    "globalMetadata": {
      "_gitContribute": {
        "branch": "Development"
      },
      "_gitUrlPattern": "github"
    }
  }
}